<?xml version="1.0" encoding="UTF-8" standalone="no"?>
<svg width="100px" height="23px" viewBox="0 0 100 23" version="1.1" xmlns="http://www.w3.org/2000/svg" xmlns:xlink="http://www.w3.org/1999/xlink">
    <!-- Generator: Sketch 39.1 (31720) - http://www.bohemiancoding.com/sketch -->
    <title>Group</title>
    <desc>Created with Sketch.</desc>
    <defs></defs>
    <g id="Page-1" stroke="none" stroke-width="1" fill="none" fill-rule="evenodd">
        <g id="Group" transform="translate(50.000000, 11.082491) scale(1, -1) translate(-50.000000, -11.082491) translate(0.000000, -0.417509)" fill="#E2E2E2">
            <path d="M0,16.6762032 C0,11.7998601 0.0190730498,10.6745502 0.0953652489,10.2040816 C0.324241846,8.79903363 0.979083222,7.52749698 1.99631254,6.51026766 C3.01354187,5.49303834 4.28507852,4.83819696 5.69012652,4.60932036 C8.97704876,4.07527497 12.1622481,6.02072605 13.2112658,9.21864073 C14.3683642,12.7280819 12.3974824,16.5554072 8.83717973,17.7252209 C7.03159769,18.3228432 4.86998538,18.0685358 3.26149151,17.0703796 L2.99446882,16.9050798 L2.97539577,19.1175536 C2.95632272,21.2473775 2.94996503,21.3427427 2.81645368,21.5843347 C2.6575116,21.8895035 2.28240829,22.2582491 1.97088181,22.4171912 C1.79286668,22.5125564 1.56399008,22.5379872 0.87736029,22.5570602 L0,22.5824909 L0,16.6762032 L0,16.6762032 Z M7.72458516,14.9723441 C8.41121495,14.7943289 8.89439888,14.5082332 9.44115964,13.9551148 C10.2295124,13.1731197 10.5537542,12.3911247 10.5537542,11.2848878 C10.5537542,10.1786509 10.2295124,9.39665586 9.44115964,8.61466082 C8.6591646,7.82630809 7.87716956,7.50206625 6.77093267,7.50206625 C5.66469578,7.50206625 4.88270074,7.82630809 4.1007057,8.61466082 C3.31235298,9.39665586 2.98811113,10.1786509 2.98811113,11.2848878 C2.98811113,12.3911247 3.31235298,13.1731197 4.1007057,13.9551148 C4.64110878,14.4955178 5.13065039,14.7879713 5.79184945,14.9659864 C6.25596033,15.0931401 7.2541166,15.0931401 7.72458516,14.9723441 L7.72458516,14.9723441 Z" id="Shape"></path>
            <path d="M17.5090597,20.1856444 C18.265624,18.5644351 20.6815436,19.0984805 20.6879013,20.8849895 C20.6879013,21.2664505 20.6624706,21.3808888 20.4971708,21.6796999 C20.0902791,22.4044758 19.2256342,22.741433 18.4627122,22.4680526 C17.5599212,22.1438108 17.102168,21.056647 17.5090597,20.1856444 Z" id="Shape"></path>
            <path d="M46.5382415,22.5125564 C46.0995613,22.3790451 45.6481658,21.9912264 45.4192892,21.5525463 C45.3112086,21.3491004 45.2984932,21.1329392 45.2794202,19.1175536 L45.2603471,16.9050798 L44.9933244,17.0703796 C44.8470977,17.1657448 44.5546443,17.3183292 44.3448407,17.4136944 C41.7381906,18.6152966 38.7310064,18.0812512 36.7092631,16.0595079 C35.6920338,15.0422786 35.0371924,13.7707419 34.8083158,12.3656939 C34.4586433,10.216797 35.1579884,8.06154237 36.7092631,6.51026766 C37.7264925,5.49303834 38.9980291,4.83819696 40.4030771,4.60932036 C43.6899994,4.07527497 46.8751987,6.02072605 47.9242164,9.21864073 C48.2484583,10.2040816 48.2548159,10.3312353 48.2548159,16.6634878 L48.2548159,22.5697756 L47.4791786,22.5634179 C47.0468561,22.5634179 46.627249,22.5379872 46.5382415,22.5125564 L46.5382415,22.5125564 Z M42.4375358,14.9723441 C43.1241656,14.7943289 43.6073495,14.5082332 44.1541102,13.9551148 C44.942463,13.1731197 45.2667048,12.3911247 45.2667048,11.2848878 C45.2667048,10.1786509 44.942463,9.39665586 44.1541102,8.61466082 C43.3721152,7.82630809 42.5901202,7.50206625 41.4838833,7.50206625 C40.3776464,7.50206625 39.5956513,7.82630809 38.8136563,8.61466082 C38.0253036,9.39665586 37.7010617,10.1786509 37.7010617,11.2848878 C37.7010617,12.3911247 38.0253036,13.1731197 38.8136563,13.9551148 C39.3540594,14.4955178 39.843601,14.7879713 40.5048001,14.9659864 C40.9689109,15.0931401 41.9670672,15.0931401 42.4375358,14.9723441 L42.4375358,14.9723441 Z" id="Shape"></path>
            <polygon id="Shape" points="17.3564753 4.51395511 18.8505309 4.51395511 20.3445864 4.51395511 20.3445864 11.2848878 20.3445864 18.0558205 18.8505309 18.0558205 17.3564753 18.0558205 17.3564753 11.2848878"></polygon>
            <path d="M29.7857461,17.9540975 C28.3870558,17.7061479 27.1536652,17.0640219 26.1555089,16.0595079 C25.1382796,15.0422786 24.4834382,13.7707419 24.2545616,12.3656939 C24.1782694,11.9079407 24.1591964,11.0496535 24.1591964,8.15690762 L24.1591964,4.51395511 L25.653252,4.51395511 L27.1473075,4.51395511 L27.1473075,8.06154237 C27.1473075,11.9651599 27.1600229,12.1177443 27.5351262,12.8743086 C27.8021489,13.4210694 28.3934134,14.0568377 28.9211012,14.3683642 C29.3788543,14.6417445 30.1735648,14.8769788 30.6249603,14.8769788 L30.8983406,14.8769788 L30.8983406,16.4663996 L30.8983406,18.0558205 L30.5995295,18.0494628 C30.4278721,18.0494628 30.0654841,18.004959 29.7857461,17.9540975 L29.7857461,17.9540975 Z" id="Shape"></path>
            <path d="M57.8867061,17.9540975 C56.4880158,17.7061479 55.2546252,17.0640219 54.2564689,16.0595079 C53.2392396,15.0422786 52.5843982,13.7707419 52.3555216,12.3656939 C52.0058491,10.216797 52.7051942,8.06154237 54.2564689,6.51026766 C55.2736983,5.49303834 56.5452349,4.83819696 57.9502829,4.60932036 C58.2681671,4.5584589 58.630555,4.51395511 58.7640664,4.51395511 L58.9993007,4.51395511 L58.9993007,6.18602581 L58.9993007,7.85173883 L58.509759,7.93438871 C57.5815373,8.08061542 56.6978193,8.64644923 56.1892047,9.43480196 C56.0556933,9.64460551 55.9476127,9.835336 55.9476127,9.86712442 C55.9476127,9.89255515 58.1346557,9.91798589 60.8048827,9.91798589 L65.6621527,9.91798589 L65.7002988,10.0642126 C65.7257295,10.1405048 65.757518,10.5346812 65.7829487,10.9415729 C65.8846716,12.8552356 65.1789688,14.6862483 63.8057092,16.0595079 C62.2480768,17.6171403 60.0101723,18.3355585 57.8867061,17.9540975 L57.8867061,17.9540975 Z M59.8194418,14.5908831 C60.6332253,14.3937949 61.4152203,13.8470341 61.8729735,13.1349736 C62.0064848,12.9251701 62.1145655,12.7344396 62.1145655,12.7026512 C62.1145655,12.6772204 60.7285905,12.6517897 59.0310891,12.6517897 C57.3335876,12.6517897 55.9476127,12.6772204 55.9476127,12.7026512 C55.9476127,12.7344396 56.0556933,12.9251701 56.1892047,13.1349736 C56.964842,14.3302181 58.4271092,14.9151249 59.8194418,14.5908831 L59.8194418,14.5908831 Z" id="Shape"></path>
            <path d="M71.1043296,16.0595079 C70.0871003,15.0422786 69.4322589,13.7707419 69.2033823,12.3656939 C68.8537097,10.216797 69.5530549,8.06154237 71.1043296,6.51026766 C73.0752114,4.53938585 75.9298112,3.9862674 78.542819,5.06707356 C78.7462649,5.14972344 78.92428,5.21330027 78.9369954,5.19422722 C78.9497107,5.18151186 78.8543455,4.99078136 78.7208341,4.77462013 C78.4410961,4.29779388 77.7862547,3.66202556 77.3285015,3.41407591 C76.9661135,3.22334541 76.1396147,2.98811113 75.8026575,2.98811113 L75.592854,2.98811113 L75.592854,1.49405557 L75.592854,0 L75.9997457,0 C76.5083604,0 77.4047937,0.152584398 77.9451968,0.33059953 C80.0305169,1.01722932 81.6326531,2.6193655 82.3192829,4.70468561 C82.6117363,5.60111895 82.6498824,6.06522983 82.6498824,9.02791023 C82.6498824,11.9905906 82.6117363,12.4547015 82.3192829,13.3511348 C81.6326531,15.436455 80.0305169,17.0385911 77.9451968,17.7252209 C76.9724712,18.0431051 75.7390807,18.1321127 74.7345667,17.9540975 C73.3358764,17.7061479 72.1024859,17.0640219 71.1043296,16.0595079 Z M76.8326022,14.9723441 C77.519232,14.7943289 78.0024159,14.5082332 78.5491767,13.9551148 C79.3375294,13.1731197 79.6617713,12.3911247 79.6617713,11.2848878 C79.6617713,10.1786509 79.3375294,9.39665586 78.5491767,8.61466082 C77.7671816,7.82630809 76.9851866,7.50206625 75.8789497,7.50206625 C74.7727128,7.50206625 73.9907178,7.82630809 73.2087227,8.61466082 C72.42037,9.39665586 72.0961282,10.1786509 72.0961282,11.2848878 C72.0961282,12.3911247 72.42037,13.1731197 73.2087227,13.9551148 C73.7491258,14.4955178 74.2386674,14.7879713 74.8998665,14.9659864 C75.3639774,15.0931401 76.3621336,15.0931401 76.8326022,14.9723441 L76.8326022,14.9723441 Z" id="Shape"></path>
            <path d="M92.091042,17.9540975 C90.6923517,17.7061479 89.4589612,17.0640219 88.4608049,16.0595079 C87.4435756,15.0422786 86.7887342,13.7707419 86.5598576,12.3656939 C86.210185,10.216797 86.9095302,8.06154237 88.4608049,6.51026766 C90.4698328,4.49488206 93.4197978,3.96719435 96.0645941,5.13700807 C97.3933499,5.72191493 98.7983979,7.12696293 99.3833047,8.45571874 C100.553118,11.100515 100.025431,14.05048 98.0100451,16.0595079 C96.4524127,17.6171403 94.2145082,18.3355585 92.091042,17.9540975 L92.091042,17.9540975 Z M94.1890775,14.9723441 C94.8757073,14.7943289 95.3588912,14.5082332 95.905652,13.9551148 C96.6940047,13.1731197 97.0182466,12.3911247 97.0182466,11.2848878 C97.0182466,10.1786509 96.6940047,9.39665586 95.905652,8.61466082 C95.1236569,7.82630809 94.3416619,7.50206625 93.235425,7.50206625 C92.1291881,7.50206625 91.3471931,7.82630809 90.565198,8.61466082 C89.7768453,9.39665586 89.4526035,10.1786509 89.4526035,11.2848878 C89.4526035,12.3911247 89.7768453,13.1731197 90.565198,13.9551148 C91.1056011,14.4955178 91.5951427,14.7879713 92.2563418,14.9659864 C92.7204527,15.0931401 93.7186089,15.0931401 94.1890775,14.9723441 L94.1890775,14.9723441 Z" id="Shape"></path>
        </g>
    </g>
</svg>